<svg width="128" height="128" xmlns="http://www.w3.org/2000/svg">

 <g>
  <title>background</title>
  <rect fill="none" id="canvas_background" height="402" width="582" y="-1" x="-1"/>
 </g>
 <g>
  <title>Layer 1</title>
  <path fill="#006eff" id="svg_2" d="m97.8,15c-18.7,-18.6 -48.9,-18.6 -67.6,0c-18.6,18.6 -18.6,48.9 0,67.6l33.8,33l33.7,-33.1l0,0c18.7,-18.6 18.7,-48.9 0.1,-67.5zm-5.7,61.8l-28.1,27.6l-28.1,-27.5c-7.5,-7.5 -11.6,-17.5 -11.6,-28.1s4.1,-20.6 11.6,-28.1s17.5,-11.7 28.1,-11.7s20.6,4.1 28.1,11.6s11.6,17.5 11.6,28.1c0.1,10.7 -4.1,20.6 -11.6,28.1z"/>
  <path fill="#006eff" id="svg_3" d="m64,28.3c-11.3,0 -20.4,9.2 -20.4,20.4s9.1,20.5 20.4,20.5s20.4,-9.2 20.4,-20.4s-9.1,-20.5 -20.4,-20.5zm0,32.9c-6.8,0 -12.4,-5.6 -12.4,-12.4s5.6,-12.5 12.4,-12.5s12.4,5.6 12.4,12.4s-5.6,12.5 -12.4,12.5z"/>
  <rect fill="#006eff" id="svg_4" y="119" x="27" width="74" height="8"/>
 </g>
</svg>